>>>>>>>>>>>>>>>>>>>>>>>>>>>>>>>>>>>>>>>>>>>>>>>>>>>>>>>>>>>>>>>>>>>>>>>>>>>>>>
>>>> Toolkit for HEP Event Generation - ThePEG f0c7c9e4efc0 (default) <<<<<<<<
>>>> Fri Nov 15 16:28:52 2019                                             <<<<
<<<<<<<<<<<<<<<<<<<<<<<<<<<<<<<<<<<<<<<<<<<<<<<<<<<<<<<<<<<<<<<<<<<<<<<<<<<<<<

>> Herwig b7689adb1ad6 (default) / ThePEG f0c7c9e4efc0 (default)

==============================================================================
Statistics for event handler 'EventHandler':
                                       generated    number of    Cross-section
                                          events     attempts             (nb)
==============================================================================
Total (from attempted events): including vetoed events            3.49(1)e-03
==============================================================================
Total (from generated events):            30000        30003      3.49(1)e-03
Events carry unit weights.
==============================================================================
Per matrix element breakdown:
MEbbarg2Y1bbar                                10           10       1.2(4)e-06
MEcbarg2Y1cbar                                28           28       3.3(6)e-06
MEsbarg2Y1sbar                                22           22       2.6(5)e-06
MEubarg2Y1ubar                                53           53       6.2(8)e-06
MEdbarg2Y1dbar                                61           61       7.1(9)e-06
MEdubar2Y1W-                                  52           52       6.0(8)e-06
MEddbar2Y1g                                 4162         4162     0.484(7)e-03
MEddbar2Y1gamma                               10           10       1.2(4)e-06
MEddbar2Y1Z0                                  24           24       2.8(6)e-06
MEddbar2Y1Y1                                   0            0                0
MEdg2Y1d                                     456          456        53(2)e-06
MEuubar2Y1g                                 8829         8829      1.03(1)e-03
MEuubar2Y1gamma                              121          121        14(1)e-06
MEuubar2Y1Z0                                  53           53       6.2(8)e-06
MEuubar2Y1Y1                                   0            0                0
MEudbar2Y1W+                                 191          191        22(2)e-06
MEug2Y1u                                    1109         1109     0.129(4)e-03
MEscbar2Y1W-                                   2            2       0.2(2)e-06
MEssbar2Y1g                                  128          128        15(1)e-06
MEssbar2Y1gamma                                0            0                0
MEssbar2Y1Z0                                   0            0                0
MEssbar2Y1Y1                                   0            0                0
MEsg2Y1s                                      24           24       2.8(6)e-06
MEccbar2Y1g                                   73           73         8(1)e-06
MEccbar2Y1gamma                                2            2       0.2(2)e-06
MEccbar2Y1Z0                                   0            0                0
MEccbar2Y1Y1                                   0            0                0
MEcsbar2Y1W+                                   3            3       0.3(2)e-06
MEcg2Y1c                                      17           17       2.0(5)e-06
MEbbbar2Y1g                                   37           37       4.3(7)e-06
MEbbbar2Y1gamma                                0            0                0
MEbbbar2Y1Z0                                   0            0                0
MEbbbar2Y1H                                    0            0                0
MEbbbar2Y1Y1                                   0            0                0
MEbg2Y1b                                      14           14       1.6(4)e-06
MEbbbar2Y12XmXm                               27           27       3.1(6)e-06
MEbbbar2Y12ttbar                               4            4       0.5(2)e-06
MEbbbar2Y12bbbar                               9            9       1.0(3)e-06
MEbbbar2Y12ssbar                               6            6       0.7(3)e-06
MEbbbar2Y12ccbar                               5            5       0.6(3)e-06
MEbbbar2Y12ddbar                               6            6       0.7(3)e-06
MEbbbar2Y12uubar                               5            5       0.6(3)e-06
MEssbar2Y12XmXm                              136          136        16(1)e-06
MEssbar2Y12ttbar                              12           12       1.4(4)e-06
MEssbar2Y12bbbar                              18           18       2.1(5)e-06
MEssbar2Y12ssbar                              10           10       1.2(4)e-06
MEssbar2Y12ccbar                              12           12       1.4(4)e-06
MEssbar2Y12ddbar                              19           19       2.2(5)e-06
MEssbar2Y12uubar                              25           25       2.9(6)e-06
MEccbar2Y12XmXm                               78           78         9(1)e-06
MEccbar2Y12ttbar                               5            5       0.6(3)e-06
MEccbar2Y12bbbar                               9            9       1.0(3)e-06
MEccbar2Y12ssbar                              11           11       1.3(4)e-06
MEccbar2Y12ccbar                               7            7       0.8(3)e-06
MEccbar2Y12ddbar                              14           14       1.6(4)e-06
MEccbar2Y12uubar                               6            6       0.7(3)e-06
MEddbar2Y12XmXm                             2575         2576     0.299(6)e-03
MEddbar2Y12ttbar                             359          359        42(2)e-06
MEddbar2Y12bbbar                             382          382        44(2)e-06
MEddbar2Y12ssbar                             359          359        42(2)e-06
MEddbar2Y12ccbar                             312          312        36(2)e-06
MEddbar2Y12ddbar                             324          325        38(2)e-06
MEddbar2Y12uubar                             367          367        43(2)e-06
MEuubar2Y12XmXm                             5261         5262     0.611(8)e-03
MEuubar2Y12ttbar                             678          678        79(3)e-06
MEuubar2Y12bbbar                             612          612        71(3)e-06
MEuubar2Y12ssbar                             726          726        84(3)e-06
MEuubar2Y12ccbar                             719          719        84(3)e-06
MEuubar2Y12ddbar                             714          714        83(3)e-06
MEuubar2Y12uubar                             707          707        82(3)e-06
==============================================================================
Per parton extractor breakdown:
PPExtractor                                30000        30003      3.49(1)e-03
==============================================================================
Per incoming partons breakdown:
d dbar                                      4397         4398     0.511(7)e-03
d ubar                                        33           33       3.8(7)e-06
d g                                          217          217        25(2)e-06
dbar d                                      4477         4478     0.520(7)e-03
dbar u                                        92           92        11(1)e-06
dbar g                                        33           33       3.8(7)e-06
ubar d                                        19           19       2.2(5)e-06
ubar u                                      9363         9363      1.09(1)e-03
ubar g                                        19           19       2.2(5)e-06
u dbar                                        99           99        12(1)e-06
u ubar                                      9057         9058      1.05(1)e-03
u g                                          561          561        65(3)e-06
c cbar                                       102          102        12(1)e-06
c sbar                                         1            1       0.1(1)e-06
c g                                            9            9       1.0(3)e-06
cbar c                                       103          103        12(1)e-06
cbar s                                         1            1       0.1(1)e-06
cbar g                                        18           18       2.1(5)e-06
sbar c                                         2            2       0.2(2)e-06
sbar s                                       185          185        21(2)e-06
sbar g                                         9            9       1.0(3)e-06
s cbar                                         1            1       0.1(1)e-06
s sbar                                       175          175        20(2)e-06
s g                                           16           16       1.9(5)e-06
b bbar                                        55           55       6.4(9)e-06
b g                                            8            8       0.9(3)e-06
bbar b                                        44           44       5.1(8)e-06
bbar g                                         7            7       0.8(3)e-06
g d                                          239          239        28(2)e-06
g dbar                                        28           28       3.3(6)e-06
g ubar                                        34           34       4.0(7)e-06
g u                                          548          548        64(3)e-06
g c                                            8            8       0.9(3)e-06
g cbar                                        10           10       1.2(4)e-06
g sbar                                        13           13       1.5(4)e-06
g s                                            8            8       0.9(3)e-06
g b                                            6            6       0.7(3)e-06
g bbar                                         3            3       0.3(2)e-06
==============================================================================
Detailed breakdown:
(PPExtractor) bbar b (MEbbbar2Y1g b,bbar->Y1,g) 
                                              12           12       1.4(4)e-06
(PPExtractor) bbar b (MEbbbar2Y1gamma b,bbar->Y1,gamma) 
                                               0            0                0
(PPExtractor) bbar b (MEbbbar2Y1Z0 b,bbar->Y1,Z0) 
                                               0            0                0
(PPExtractor) bbar b (MEbbbar2Y1H b,bbar->Y1,H) 
                                               0            0                0
(PPExtractor) bbar b (MEbbbar2Y1Y1 b,bbar->Y1,Y1) 
                                               0            0                0
(PPExtractor) bbar b (MEbbbar2Y12XmXm b,bbar->Xm,Xm) 
                                              12           12       1.4(4)e-06
(PPExtractor) bbar b (MEbbbar2Y12ttbar b,bbar->t,tbar) 
                                               2            2       0.2(2)e-06
(PPExtractor) bbar b (MEbbbar2Y12bbbar b,bbar->b,bbar) 
                                               4            4       0.5(2)e-06
(PPExtractor) bbar b (MEbbbar2Y12ssbar b,bbar->s,sbar) 
                                               3            3       0.3(2)e-06
(PPExtractor) bbar b (MEbbbar2Y12ccbar b,bbar->c,cbar) 
                                               4            4       0.5(2)e-06
(PPExtractor) bbar b (MEbbbar2Y12ddbar b,bbar->d,dbar) 
                                               4            4       0.5(2)e-06
(PPExtractor) bbar b (MEbbbar2Y12uubar b,bbar->u,ubar) 
                                               3            3       0.3(2)e-06
(PPExtractor) bbar g (MEbbarg2Y1bbar bbar,g->Y1,bbar) 
                                               7            7       0.8(3)e-06
(PPExtractor) cbar s (MEscbar2Y1W- s,cbar->Y1,W-) 
                                               1            1       0.1(1)e-06
(PPExtractor) cbar c (MEccbar2Y1g c,cbar->Y1,g) 
                                              39           39       4.5(7)e-06
(PPExtractor) cbar c (MEccbar2Y1gamma c,cbar->Y1,gamma) 
                                               1            1       0.1(1)e-06
(PPExtractor) cbar c (MEccbar2Y1Z0 c,cbar->Y1,Z0) 
                                               0            0                0
(PPExtractor) cbar c (MEccbar2Y1Y1 c,cbar->Y1,Y1) 
                                               0            0                0
(PPExtractor) cbar c (MEccbar2Y12XmXm c,cbar->Xm,Xm) 
                                              40           40       4.6(7)e-06
(PPExtractor) cbar c (MEccbar2Y12ttbar c,cbar->t,tbar) 
                                               1            1       0.1(1)e-06
(PPExtractor) cbar c (MEccbar2Y12bbbar c,cbar->b,bbar) 
                                               4            4       0.5(2)e-06
(PPExtractor) cbar c (MEccbar2Y12ssbar c,cbar->s,sbar) 
                                               7            7       0.8(3)e-06
(PPExtractor) cbar c (MEccbar2Y12ccbar c,cbar->c,cbar) 
                                               1            1       0.1(1)e-06
(PPExtractor) cbar c (MEccbar2Y12ddbar c,cbar->d,dbar) 
                                               7            7       0.8(3)e-06
(PPExtractor) cbar c (MEccbar2Y12uubar c,cbar->u,ubar) 
                                               3            3       0.3(2)e-06
(PPExtractor) cbar g (MEcbarg2Y1cbar cbar,g->Y1,cbar) 
                                              18           18       2.1(5)e-06
(PPExtractor) sbar s (MEssbar2Y1g s,sbar->Y1,g) 
                                              62           62       7.2(9)e-06
(PPExtractor) sbar s (MEssbar2Y1gamma s,sbar->Y1,gamma) 
                                               0            0                0
(PPExtractor) sbar s (MEssbar2Y1Z0 s,sbar->Y1,Z0) 
                                               0            0                0
(PPExtractor) sbar s (MEssbar2Y1Y1 s,sbar->Y1,Y1) 
                                               0            0                0
(PPExtractor) sbar s (MEssbar2Y12XmXm s,sbar->Xm,Xm) 
                                              66           66       7.7(9)e-06
(PPExtractor) sbar s (MEssbar2Y12ttbar s,sbar->t,tbar) 
                                               5            5       0.6(3)e-06
(PPExtractor) sbar s (MEssbar2Y12bbbar s,sbar->b,bbar) 
                                              11           11       1.3(4)e-06
(PPExtractor) sbar s (MEssbar2Y12ssbar s,sbar->s,sbar) 
                                               9            9       1.0(3)e-06
(PPExtractor) sbar s (MEssbar2Y12ccbar s,sbar->c,cbar) 
                                               7            7       0.8(3)e-06
(PPExtractor) sbar s (MEssbar2Y12ddbar s,sbar->d,dbar) 
                                              10           10       1.2(4)e-06
(PPExtractor) sbar s (MEssbar2Y12uubar s,sbar->u,ubar) 
                                              15           15       1.7(4)e-06
(PPExtractor) sbar c (MEcsbar2Y1W+ c,sbar->Y1,W+) 
                                               2            2       0.2(2)e-06
(PPExtractor) sbar g (MEsbarg2Y1sbar sbar,g->Y1,sbar) 
                                               9            9       1.0(3)e-06
(PPExtractor) ubar d (MEdubar2Y1W- d,ubar->Y1,W-) 
                                              19           19       2.2(5)e-06
(PPExtractor) ubar u (MEuubar2Y1g u,ubar->Y1,g) 
                                            4474         4474     0.520(7)e-03
(PPExtractor) ubar u (MEuubar2Y1gamma u,ubar->Y1,gamma) 
                                              65           65       7.6(9)e-06
(PPExtractor) ubar u (MEuubar2Y1Z0 u,ubar->Y1,Z0) 
                                              23           23       2.7(6)e-06
(PPExtractor) ubar u (MEuubar2Y1Y1 u,ubar->Y1,Y1) 
                                               0            0                0
(PPExtractor) ubar u (MEuubar2Y12XmXm u,ubar->Xm,Xm) 
                                            2646         2646     0.307(6)e-03
(PPExtractor) ubar u (MEuubar2Y12ttbar u,ubar->t,tbar) 
                                             338          338        39(2)e-06
(PPExtractor) ubar u (MEuubar2Y12bbbar u,ubar->b,bbar) 
                                             344          344        40(2)e-06
(PPExtractor) ubar u (MEuubar2Y12ssbar u,ubar->s,sbar) 
                                             382          382        44(2)e-06
(PPExtractor) ubar u (MEuubar2Y12ccbar u,ubar->c,cbar) 
                                             359          359        42(2)e-06
(PPExtractor) ubar u (MEuubar2Y12ddbar u,ubar->d,dbar) 
                                             379          379        44(2)e-06
(PPExtractor) ubar u (MEuubar2Y12uubar u,ubar->u,ubar) 
                                             353          353        41(2)e-06
(PPExtractor) ubar g (MEubarg2Y1ubar ubar,g->Y1,ubar) 
                                              19           19       2.2(5)e-06
(PPExtractor) dbar d (MEddbar2Y1g d,dbar->Y1,g) 
                                            2133         2133     0.248(5)e-03
(PPExtractor) dbar d (MEddbar2Y1gamma d,dbar->Y1,gamma) 
                                               6            6       0.7(3)e-06
(PPExtractor) dbar d (MEddbar2Y1Z0 d,dbar->Y1,Z0) 
                                              13           13       1.5(4)e-06
(PPExtractor) dbar d (MEddbar2Y1Y1 d,dbar->Y1,Y1) 
                                               0            0                0
(PPExtractor) dbar d (MEddbar2Y12XmXm d,dbar->Xm,Xm) 
                                            1289         1290     0.150(4)e-03
(PPExtractor) dbar d (MEddbar2Y12ttbar d,dbar->t,tbar) 
                                             191          191        22(2)e-06
(PPExtractor) dbar d (MEddbar2Y12bbbar d,dbar->b,bbar) 
                                             195          195        23(2)e-06
(PPExtractor) dbar d (MEddbar2Y12ssbar d,dbar->s,sbar) 
                                             164          164        19(1)e-06
(PPExtractor) dbar d (MEddbar2Y12ccbar d,dbar->c,cbar) 
                                             156          156        18(1)e-06
(PPExtractor) dbar d (MEddbar2Y12ddbar d,dbar->d,dbar) 
                                             162          162        19(1)e-06
(PPExtractor) dbar d (MEddbar2Y12uubar d,dbar->u,ubar) 
                                             168          168        20(2)e-06
(PPExtractor) dbar u (MEudbar2Y1W+ u,dbar->Y1,W+) 
                                              92           92        11(1)e-06
(PPExtractor) dbar g (MEdbarg2Y1dbar dbar,g->Y1,dbar) 
                                              33           33       3.8(7)e-06
(PPExtractor) d ubar (MEdubar2Y1W- d,ubar->Y1,W-) 
                                              33           33       3.8(7)e-06
(PPExtractor) d dbar (MEddbar2Y1g d,dbar->Y1,g) 
                                            2029         2029     0.236(5)e-03
(PPExtractor) d dbar (MEddbar2Y1gamma d,dbar->Y1,gamma) 
                                               4            4       0.5(2)e-06
(PPExtractor) d dbar (MEddbar2Y1Z0 d,dbar->Y1,Z0) 
                                              11           11       1.3(4)e-06
(PPExtractor) d dbar (MEddbar2Y1Y1 d,dbar->Y1,Y1) 
                                               0            0                0
(PPExtractor) d dbar (MEddbar2Y12XmXm d,dbar->Xm,Xm) 
                                            1286         1286     0.149(4)e-03
(PPExtractor) d dbar (MEddbar2Y12ttbar d,dbar->t,tbar) 
                                             168          168        20(2)e-06
(PPExtractor) d dbar (MEddbar2Y12bbbar d,dbar->b,bbar) 
                                             187          187        22(2)e-06
(PPExtractor) d dbar (MEddbar2Y12ssbar d,dbar->s,sbar) 
                                             195          195        23(2)e-06
(PPExtractor) d dbar (MEddbar2Y12ccbar d,dbar->c,cbar) 
                                             156          156        18(1)e-06
(PPExtractor) d dbar (MEddbar2Y12ddbar d,dbar->d,dbar) 
                                             162          163        19(1)e-06
(PPExtractor) d dbar (MEddbar2Y12uubar d,dbar->u,ubar) 
                                             199          199        23(2)e-06
(PPExtractor) d g (MEdg2Y1d d,g->Y1,d) 
                                             217          217        25(2)e-06
(PPExtractor) u ubar (MEuubar2Y1g u,ubar->Y1,g) 
                                            4355         4355     0.506(7)e-03
(PPExtractor) u ubar (MEuubar2Y1gamma u,ubar->Y1,gamma) 
                                              56           56       6.5(9)e-06
(PPExtractor) u ubar (MEuubar2Y1Z0 u,ubar->Y1,Z0) 
                                              30           30       3.5(6)e-06
(PPExtractor) u ubar (MEuubar2Y1Y1 u,ubar->Y1,Y1) 
                                               0            0                0
(PPExtractor) u ubar (MEuubar2Y12XmXm u,ubar->Xm,Xm) 
                                            2615         2616     0.304(6)e-03
(PPExtractor) u ubar (MEuubar2Y12ttbar u,ubar->t,tbar) 
                                             340          340        40(2)e-06
(PPExtractor) u ubar (MEuubar2Y12bbbar u,ubar->b,bbar) 
                                             268          268        31(2)e-06
(PPExtractor) u ubar (MEuubar2Y12ssbar u,ubar->s,sbar) 
                                             344          344        40(2)e-06
(PPExtractor) u ubar (MEuubar2Y12ccbar u,ubar->c,cbar) 
                                             360          360        42(2)e-06
(PPExtractor) u ubar (MEuubar2Y12ddbar u,ubar->d,dbar) 
                                             335          335        39(2)e-06
(PPExtractor) u ubar (MEuubar2Y12uubar u,ubar->u,ubar) 
                                             354          354        41(2)e-06
(PPExtractor) u dbar (MEudbar2Y1W+ u,dbar->Y1,W+) 
                                              99           99        12(1)e-06
(PPExtractor) u g (MEug2Y1u u,g->Y1,u) 
                                             561          561        65(3)e-06
(PPExtractor) s cbar (MEscbar2Y1W- s,cbar->Y1,W-) 
                                               1            1       0.1(1)e-06
(PPExtractor) s sbar (MEssbar2Y1g s,sbar->Y1,g) 
                                              66           66       7.7(9)e-06
(PPExtractor) s sbar (MEssbar2Y1gamma s,sbar->Y1,gamma) 
                                               0            0                0
(PPExtractor) s sbar (MEssbar2Y1Z0 s,sbar->Y1,Z0) 
                                               0            0                0
(PPExtractor) s sbar (MEssbar2Y1Y1 s,sbar->Y1,Y1) 
                                               0            0                0
(PPExtractor) s sbar (MEssbar2Y12XmXm s,sbar->Xm,Xm) 
                                              70           70         8(1)e-06
(PPExtractor) s sbar (MEssbar2Y12ttbar s,sbar->t,tbar) 
                                               7            7       0.8(3)e-06
(PPExtractor) s sbar (MEssbar2Y12bbbar s,sbar->b,bbar) 
                                               7            7       0.8(3)e-06
(PPExtractor) s sbar (MEssbar2Y12ssbar s,sbar->s,sbar) 
                                               1            1       0.1(1)e-06
(PPExtractor) s sbar (MEssbar2Y12ccbar s,sbar->c,cbar) 
                                               5            5       0.6(3)e-06
(PPExtractor) s sbar (MEssbar2Y12ddbar s,sbar->d,dbar) 
                                               9            9       1.0(3)e-06
(PPExtractor) s sbar (MEssbar2Y12uubar s,sbar->u,ubar) 
                                              10           10       1.2(4)e-06
(PPExtractor) s g (MEsg2Y1s s,g->Y1,s) 
                                              16           16       1.9(5)e-06
(PPExtractor) c cbar (MEccbar2Y1g c,cbar->Y1,g) 
                                              34           34       4.0(7)e-06
(PPExtractor) c cbar (MEccbar2Y1gamma c,cbar->Y1,gamma) 
                                               1            1       0.1(1)e-06
(PPExtractor) c cbar (MEccbar2Y1Z0 c,cbar->Y1,Z0) 
                                               0            0                0
(PPExtractor) c cbar (MEccbar2Y1Y1 c,cbar->Y1,Y1) 
                                               0            0                0
(PPExtractor) c cbar (MEccbar2Y12XmXm c,cbar->Xm,Xm) 
                                              38           38       4.4(7)e-06
(PPExtractor) c cbar (MEccbar2Y12ttbar c,cbar->t,tbar) 
                                               4            4       0.5(2)e-06
(PPExtractor) c cbar (MEccbar2Y12bbbar c,cbar->b,bbar) 
                                               5            5       0.6(3)e-06
(PPExtractor) c cbar (MEccbar2Y12ssbar c,cbar->s,sbar) 
                                               4            4       0.5(2)e-06
(PPExtractor) c cbar (MEccbar2Y12ccbar c,cbar->c,cbar) 
                                               6            6       0.7(3)e-06
(PPExtractor) c cbar (MEccbar2Y12ddbar c,cbar->d,dbar) 
                                               7            7       0.8(3)e-06
(PPExtractor) c cbar (MEccbar2Y12uubar c,cbar->u,ubar) 
                                               3            3       0.3(2)e-06
(PPExtractor) c sbar (MEcsbar2Y1W+ c,sbar->Y1,W+) 
                                               1            1       0.1(1)e-06
(PPExtractor) c g (MEcg2Y1c c,g->Y1,c) 
                                               9            9       1.0(3)e-06
(PPExtractor) b bbar (MEbbbar2Y1g b,bbar->Y1,g) 
                                              25           25       2.9(6)e-06
(PPExtractor) b bbar (MEbbbar2Y1gamma b,bbar->Y1,gamma) 
                                               0            0                0
(PPExtractor) b bbar (MEbbbar2Y1Z0 b,bbar->Y1,Z0) 
                                               0            0                0
(PPExtractor) b bbar (MEbbbar2Y1H b,bbar->Y1,H) 
                                               0            0                0
(PPExtractor) b bbar (MEbbbar2Y1Y1 b,bbar->Y1,Y1) 
                                               0            0                0
(PPExtractor) b bbar (MEbbbar2Y12XmXm b,bbar->Xm,Xm) 
                                              15           15       1.7(4)e-06
(PPExtractor) b bbar (MEbbbar2Y12ttbar b,bbar->t,tbar) 
                                               2            2       0.2(2)e-06
(PPExtractor) b bbar (MEbbbar2Y12bbbar b,bbar->b,bbar) 
                                               5            5       0.6(3)e-06
(PPExtractor) b bbar (MEbbbar2Y12ssbar b,bbar->s,sbar) 
                                               3            3       0.3(2)e-06
(PPExtractor) b bbar (MEbbbar2Y12ccbar b,bbar->c,cbar) 
                                               1            1       0.1(1)e-06
(PPExtractor) b bbar (MEbbbar2Y12ddbar b,bbar->d,dbar) 
                                               2            2       0.2(2)e-06
(PPExtractor) b bbar (MEbbbar2Y12uubar b,bbar->u,ubar) 
                                               2            2       0.2(2)e-06
(PPExtractor) b g (MEbg2Y1b b,g->Y1,b) 
                                               8            8       0.9(3)e-06
(PPExtractor) g bbar (MEbbarg2Y1bbar bbar,g->Y1,bbar) 
                                               3            3       0.3(2)e-06
(PPExtractor) g cbar (MEcbarg2Y1cbar cbar,g->Y1,cbar) 
                                              10           10       1.2(4)e-06
(PPExtractor) g sbar (MEsbarg2Y1sbar sbar,g->Y1,sbar) 
                                              13           13       1.5(4)e-06
(PPExtractor) g ubar (MEubarg2Y1ubar ubar,g->Y1,ubar) 
                                              34           34       4.0(7)e-06
(PPExtractor) g dbar (MEdbarg2Y1dbar dbar,g->Y1,dbar) 
                                              28           28       3.3(6)e-06
(PPExtractor) g d (MEdg2Y1d d,g->Y1,d) 
                                             239          239        28(2)e-06
(PPExtractor) g u (MEug2Y1u u,g->Y1,u) 
                                             548          548        64(3)e-06
(PPExtractor) g s (MEsg2Y1s s,g->Y1,s) 
                                               8            8       0.9(3)e-06
(PPExtractor) g c (MEcg2Y1c c,g->Y1,c) 
                                               8            8       0.9(3)e-06
(PPExtractor) g b (MEbg2Y1b b,g->Y1,b) 
                                               6            6       0.7(3)e-06
==============================================================================
