>>>>>>>>>>>>>>>>>>>>>>>>>>>>>>>>>>>>>>>>>>>>>>>>>>>>>>>>>>>>>>>>>>>>>>>>>>>>>>
>>>> Toolkit for HEP Event Generation - ThePEG f0c7c9e4efc0 (default) <<<<<<<<
>>>> Fri Nov 15 16:30:48 2019                                             <<<<
<<<<<<<<<<<<<<<<<<<<<<<<<<<<<<<<<<<<<<<<<<<<<<<<<<<<<<<<<<<<<<<<<<<<<<<<<<<<<<

>> Herwig b7689adb1ad6 (default) / ThePEG f0c7c9e4efc0 (default)

==============================================================================
Statistics for event handler 'EventHandler':
                                       generated    number of    Cross-section
                                          events     attempts             (nb)
==============================================================================
Total (from attempted events): including vetoed events            40.8(1)e+00
==============================================================================
Total (from generated events):            30000        30002      40.8(1)e+00
Events carry unit weights.
==============================================================================
Per matrix element breakdown:
MEbbarg2Y1bbar                                91           91      0.12(1)e+00
MEcbarg2Y1cbar                               178          178      0.24(2)e+00
MEsbarg2Y1sbar                               214          214      0.29(2)e+00
MEubarg2Y1ubar                               356          356      0.48(3)e+00
MEdbarg2Y1dbar                               374          374      0.51(3)e+00
MEdubar2Y1W-                                   8            8        11(4)e-03
MEddbar2Y1g                                  750          750      1.02(4)e+00
MEddbar2Y1gamma                                5            5         7(3)e-03
MEddbar2Y1Z0                                   4            4         5(3)e-03
MEddbar2Y1Y1                                   4            4         5(3)e-03
MEdg2Y1d                                     965          965      1.31(4)e+00
MEuubar2Y1g                                 1223         1223      1.66(5)e+00
MEuubar2Y1gamma                               17           17        23(6)e-03
MEuubar2Y1Z0                                   5            5         7(3)e-03
MEuubar2Y1Y1                                   3            3         4(2)e-03
MEudbar2Y1W+                                  14           14        19(5)e-03
MEug2Y1u                                    1722         1722      2.34(6)e+00
MEscbar2Y1W-                                   0            0                0
MEssbar2Y1g                                  143          143      0.19(2)e+00
MEssbar2Y1gamma                                0            0                0
MEssbar2Y1Z0                                   1            1         1(1)e-03
MEssbar2Y1Y1                                   3            3         4(2)e-03
MEsg2Y1s                                     222          222      0.30(2)e+00
MEccbar2Y1g                                   57           58       80(10)e-03
MEccbar2Y1gamma                                1            1         1(1)e-03
MEccbar2Y1Z0                                   0            0                0
MEccbar2Y1Y1                                   0            0                0
MEcsbar2Y1W+                                   1            1         1(1)e-03
MEcg2Y1c                                     146          146      0.20(2)e+00
MEbbbar2Y1g                                   22           22        30(6)e-03
MEbbbar2Y1gamma                                0            0                0
MEbbbar2Y1Z0                                   0            0                0
MEbbbar2Y1H                                    0            0                0
MEbbbar2Y1Y1                                   0            0                0
MEbg2Y1b                                      94           94      0.13(1)e+00
MEbbbar2Y12XmXm                                0            0                0
MEbbbar2Y12ttbar                               0            0                0
MEbbbar2Y12bbbar                             107          107      0.15(1)e+00
MEbbbar2Y12ssbar                              93           93      0.13(1)e+00
MEbbbar2Y12ccbar                              84           84      0.11(1)e+00
MEbbbar2Y12ddbar                              63           63       90(10)e-03
MEbbbar2Y12uubar                              91           91      0.12(1)e+00
MEssbar2Y12XmXm                                1            1         1(1)e-03
MEssbar2Y12ttbar                               0            0                0
MEssbar2Y12bbbar                             391          391      0.53(3)e+00
MEssbar2Y12ssbar                             420          420      0.57(3)e+00
MEssbar2Y12ccbar                             410          410      0.56(3)e+00
MEssbar2Y12ddbar                             433          433      0.59(3)e+00
MEssbar2Y12uubar                             376          376      0.51(3)e+00
MEccbar2Y12XmXm                                0            0                0
MEccbar2Y12ttbar                               0            0                0
MEccbar2Y12bbbar                             203          203      0.28(2)e+00
MEccbar2Y12ssbar                             225          225      0.31(2)e+00
MEccbar2Y12ccbar                             212          212      0.29(2)e+00
MEccbar2Y12ddbar                             223          223      0.30(2)e+00
MEccbar2Y12uubar                             199          199      0.27(2)e+00
MEddbar2Y12XmXm                                6            6         8(3)e-03
MEddbar2Y12ttbar                               0            0                0
MEddbar2Y12bbbar                            1572         1572      2.14(5)e+00
MEddbar2Y12ssbar                            1620         1620      2.20(5)e+00
MEddbar2Y12ccbar                            1566         1567      2.13(5)e+00
MEddbar2Y12ddbar                            1616         1616      2.20(5)e+00
MEddbar2Y12uubar                            1576         1576      2.14(5)e+00
MEuubar2Y12XmXm                                7            7       9.5(4)e-03
MEuubar2Y12ttbar                               0            0                0
MEuubar2Y12bbbar                            2413         2413      3.28(6)e+00
MEuubar2Y12ssbar                            2346         2346      3.19(6)e+00
MEuubar2Y12ccbar                            2377         2377      3.23(6)e+00
MEuubar2Y12ddbar                            2419         2419      3.29(6)e+00
MEuubar2Y12uubar                            2328         2328      3.17(6)e+00
==============================================================================
Per parton extractor breakdown:
PPExtractor                                30000        30002      40.8(1)e+00
==============================================================================
Per incoming partons breakdown:
d dbar                                      4377         4378      5.95(8)e+00
d ubar                                         4            4         5(3)e-03
d g                                          474          474      0.64(3)e+00
dbar d                                      4342         4342      5.91(8)e+00
dbar u                                         4            4         5(3)e-03
dbar g                                       168          168      0.23(2)e+00
ubar d                                         4            4         5(3)e-03
ubar u                                      6611         6611       9.0(1)e+00
ubar g                                       167          167      0.23(2)e+00
u dbar                                        10           10        14(4)e-03
u ubar                                      6527         6527       8.9(1)e+00
u g                                          856          856      1.16(4)e+00
c cbar                                       564          564      0.77(3)e+00
c sbar                                         1            1         1(1)e-03
c g                                           75           75      0.10(1)e+00
cbar c                                       556          557      0.76(3)e+00
cbar s                                         0            0                0
cbar g                                        83           83      0.11(1)e+00
sbar c                                         0            0                0
sbar s                                      1086         1086      1.48(4)e+00
sbar g                                       117          117      0.16(1)e+00
s cbar                                         0            0                0
s sbar                                      1092         1092      1.49(4)e+00
s g                                          121          121      0.16(1)e+00
b bbar                                       230          230      0.31(2)e+00
b g                                           52           52       70(10)e-03
bbar b                                       230          230      0.31(2)e+00
bbar g                                        47           47        64(9)e-03
g d                                          491          491      0.67(3)e+00
g dbar                                       206          206      0.28(2)e+00
g ubar                                       189          189      0.26(2)e+00
g u                                          866          866      1.18(4)e+00
g c                                           71           71        97(1)e-03
g cbar                                        95           95      0.13(1)e+00
g sbar                                        97           97      0.13(1)e+00
g s                                          101          101      0.14(1)e+00
g b                                           42           42        57(9)e-03
g bbar                                        44           44        60(9)e-03
==============================================================================
Detailed breakdown:
(PPExtractor) bbar b (MEbbbar2Y1g b,bbar->Y1,g) 
                                              14           14        19(5)e-03
(PPExtractor) bbar b (MEbbbar2Y1gamma b,bbar->Y1,gamma) 
                                               0            0                0
(PPExtractor) bbar b (MEbbbar2Y1Z0 b,bbar->Y1,Z0) 
                                               0            0                0
(PPExtractor) bbar b (MEbbbar2Y1H b,bbar->Y1,H) 
                                               0            0                0
(PPExtractor) bbar b (MEbbbar2Y1Y1 b,bbar->Y1,Y1) 
                                               0            0                0
(PPExtractor) bbar b (MEbbbar2Y12XmXm b,bbar->Xm,Xm) 
                                               0            0                0
(PPExtractor) bbar b (MEbbbar2Y12ttbar b,bbar->t,tbar) 
                                               0            0                0
(PPExtractor) bbar b (MEbbbar2Y12bbbar b,bbar->b,bbar) 
                                              56           56       80(10)e-03
(PPExtractor) bbar b (MEbbbar2Y12ssbar b,bbar->s,sbar) 
                                              44           44        60(9)e-03
(PPExtractor) bbar b (MEbbbar2Y12ccbar b,bbar->c,cbar) 
                                              41           41        56(9)e-03
(PPExtractor) bbar b (MEbbbar2Y12ddbar b,bbar->d,dbar) 
                                              31           31        42(8)e-03
(PPExtractor) bbar b (MEbbbar2Y12uubar b,bbar->u,ubar) 
                                              44           44        60(9)e-03
(PPExtractor) bbar g (MEbbarg2Y1bbar bbar,g->Y1,bbar) 
                                              47           47        64(9)e-03
(PPExtractor) cbar s (MEscbar2Y1W- s,cbar->Y1,W-) 
                                               0            0                0
(PPExtractor) cbar c (MEccbar2Y1g c,cbar->Y1,g) 
                                              32           33        44(8)e-03
(PPExtractor) cbar c (MEccbar2Y1gamma c,cbar->Y1,gamma) 
                                               1            1         1(1)e-03
(PPExtractor) cbar c (MEccbar2Y1Z0 c,cbar->Y1,Z0) 
                                               0            0                0
(PPExtractor) cbar c (MEccbar2Y1Y1 c,cbar->Y1,Y1) 
                                               0            0                0
(PPExtractor) cbar c (MEccbar2Y12XmXm c,cbar->Xm,Xm) 
                                               0            0                0
(PPExtractor) cbar c (MEccbar2Y12ttbar c,cbar->t,tbar) 
                                               0            0                0
(PPExtractor) cbar c (MEccbar2Y12bbbar c,cbar->b,bbar) 
                                             110          110      0.15(1)e+00
(PPExtractor) cbar c (MEccbar2Y12ssbar c,cbar->s,sbar) 
                                             102          102      0.14(1)e+00
(PPExtractor) cbar c (MEccbar2Y12ccbar c,cbar->c,cbar) 
                                             100          100      0.14(1)e+00
(PPExtractor) cbar c (MEccbar2Y12ddbar c,cbar->d,dbar) 
                                             108          108      0.15(1)e+00
(PPExtractor) cbar c (MEccbar2Y12uubar c,cbar->u,ubar) 
                                             103          103      0.14(1)e+00
(PPExtractor) cbar g (MEcbarg2Y1cbar cbar,g->Y1,cbar) 
                                              83           83      0.11(1)e+00
(PPExtractor) sbar s (MEssbar2Y1g s,sbar->Y1,g) 
                                              71           71        97(1)e-03
(PPExtractor) sbar s (MEssbar2Y1gamma s,sbar->Y1,gamma) 
                                               0            0                0
(PPExtractor) sbar s (MEssbar2Y1Z0 s,sbar->Y1,Z0) 
                                               0            0                0
(PPExtractor) sbar s (MEssbar2Y1Y1 s,sbar->Y1,Y1) 
                                               0            0                0
(PPExtractor) sbar s (MEssbar2Y12XmXm s,sbar->Xm,Xm) 
                                               0            0                0
(PPExtractor) sbar s (MEssbar2Y12ttbar s,sbar->t,tbar) 
                                               0            0                0
(PPExtractor) sbar s (MEssbar2Y12bbbar s,sbar->b,bbar) 
                                             189          189      0.26(2)e+00
(PPExtractor) sbar s (MEssbar2Y12ssbar s,sbar->s,sbar) 
                                             216          216      0.29(2)e+00
(PPExtractor) sbar s (MEssbar2Y12ccbar s,sbar->c,cbar) 
                                             194          194      0.26(2)e+00
(PPExtractor) sbar s (MEssbar2Y12ddbar s,sbar->d,dbar) 
                                             234          234      0.32(2)e+00
(PPExtractor) sbar s (MEssbar2Y12uubar s,sbar->u,ubar) 
                                             182          182      0.25(2)e+00
(PPExtractor) sbar c (MEcsbar2Y1W+ c,sbar->Y1,W+) 
                                               0            0                0
(PPExtractor) sbar g (MEsbarg2Y1sbar sbar,g->Y1,sbar) 
                                             117          117      0.16(1)e+00
(PPExtractor) ubar d (MEdubar2Y1W- d,ubar->Y1,W-) 
                                               4            4         5(3)e-03
(PPExtractor) ubar u (MEuubar2Y1g u,ubar->Y1,g) 
                                             604          604      0.82(3)e+00
(PPExtractor) ubar u (MEuubar2Y1gamma u,ubar->Y1,gamma) 
                                               9            9        12(4)e-03
(PPExtractor) ubar u (MEuubar2Y1Z0 u,ubar->Y1,Z0) 
                                               2            2         3(2)e-03
(PPExtractor) ubar u (MEuubar2Y1Y1 u,ubar->Y1,Y1) 
                                               1            1         1(1)e-03
(PPExtractor) ubar u (MEuubar2Y12XmXm u,ubar->Xm,Xm) 
                                               1            1         1(1)e-03
(PPExtractor) ubar u (MEuubar2Y12ttbar u,ubar->t,tbar) 
                                               0            0                0
(PPExtractor) ubar u (MEuubar2Y12bbbar u,ubar->b,bbar) 
                                            1223         1223      1.66(5)e+00
(PPExtractor) ubar u (MEuubar2Y12ssbar u,ubar->s,sbar) 
                                            1183         1183      1.61(5)e+00
(PPExtractor) ubar u (MEuubar2Y12ccbar u,ubar->c,cbar) 
                                            1189         1189      1.62(5)e+00
(PPExtractor) ubar u (MEuubar2Y12ddbar u,ubar->d,dbar) 
                                            1247         1247      1.70(5)e+00
(PPExtractor) ubar u (MEuubar2Y12uubar u,ubar->u,ubar) 
                                            1152         1152      1.57(5)e+00
(PPExtractor) ubar g (MEubarg2Y1ubar ubar,g->Y1,ubar) 
                                             167          167      0.23(2)e+00
(PPExtractor) dbar d (MEddbar2Y1g d,dbar->Y1,g) 
                                             374          374      0.51(3)e+00
(PPExtractor) dbar d (MEddbar2Y1gamma d,dbar->Y1,gamma) 
                                               1            1         1(1)e-03
(PPExtractor) dbar d (MEddbar2Y1Z0 d,dbar->Y1,Z0) 
                                               2            2         3(2)e-03
(PPExtractor) dbar d (MEddbar2Y1Y1 d,dbar->Y1,Y1) 
                                               2            2         3(2)e-03
(PPExtractor) dbar d (MEddbar2Y12XmXm d,dbar->Xm,Xm) 
                                               4            4         5(3)e-03
(PPExtractor) dbar d (MEddbar2Y12ttbar d,dbar->t,tbar) 
                                               0            0                0
(PPExtractor) dbar d (MEddbar2Y12bbbar d,dbar->b,bbar) 
                                             799          799      1.09(4)e+00
(PPExtractor) dbar d (MEddbar2Y12ssbar d,dbar->s,sbar) 
                                             796          796      1.08(4)e+00
(PPExtractor) dbar d (MEddbar2Y12ccbar d,dbar->c,cbar) 
                                             751          751      1.02(4)e+00
(PPExtractor) dbar d (MEddbar2Y12ddbar d,dbar->d,dbar) 
                                             828          828      1.13(4)e+00
(PPExtractor) dbar d (MEddbar2Y12uubar d,dbar->u,ubar) 
                                             785          785      1.07(4)e+00
(PPExtractor) dbar u (MEudbar2Y1W+ u,dbar->Y1,W+) 
                                               4            4         5(3)e-03
(PPExtractor) dbar g (MEdbarg2Y1dbar dbar,g->Y1,dbar) 
                                             168          168      0.23(2)e+00
(PPExtractor) d ubar (MEdubar2Y1W- d,ubar->Y1,W-) 
                                               4            4         5(3)e-03
(PPExtractor) d dbar (MEddbar2Y1g d,dbar->Y1,g) 
                                             376          376      0.51(3)e+00
(PPExtractor) d dbar (MEddbar2Y1gamma d,dbar->Y1,gamma) 
                                               4            4         5(3)e-03
(PPExtractor) d dbar (MEddbar2Y1Z0 d,dbar->Y1,Z0) 
                                               2            2         3(2)e-03
(PPExtractor) d dbar (MEddbar2Y1Y1 d,dbar->Y1,Y1) 
                                               2            2         3(2)e-03
(PPExtractor) d dbar (MEddbar2Y12XmXm d,dbar->Xm,Xm) 
                                               2            2         3(2)e-03
(PPExtractor) d dbar (MEddbar2Y12ttbar d,dbar->t,tbar) 
                                               0            0                0
(PPExtractor) d dbar (MEddbar2Y12bbbar d,dbar->b,bbar) 
                                             773          773      1.05(4)e+00
(PPExtractor) d dbar (MEddbar2Y12ssbar d,dbar->s,sbar) 
                                             824          824      1.12(4)e+00
(PPExtractor) d dbar (MEddbar2Y12ccbar d,dbar->c,cbar) 
                                             815          816      1.11(4)e+00
(PPExtractor) d dbar (MEddbar2Y12ddbar d,dbar->d,dbar) 
                                             788          788      1.07(4)e+00
(PPExtractor) d dbar (MEddbar2Y12uubar d,dbar->u,ubar) 
                                             791          791      1.08(4)e+00
(PPExtractor) d g (MEdg2Y1d d,g->Y1,d) 
                                             474          474      0.64(3)e+00
(PPExtractor) u ubar (MEuubar2Y1g u,ubar->Y1,g) 
                                             619          619      0.84(3)e+00
(PPExtractor) u ubar (MEuubar2Y1gamma u,ubar->Y1,gamma) 
                                               8            8        11(4)e-03
(PPExtractor) u ubar (MEuubar2Y1Z0 u,ubar->Y1,Z0) 
                                               3            3         4(2)e-03
(PPExtractor) u ubar (MEuubar2Y1Y1 u,ubar->Y1,Y1) 
                                               2            2         3(2)e-03
(PPExtractor) u ubar (MEuubar2Y12XmXm u,ubar->Xm,Xm) 
                                               6            6         8(3)e-03
(PPExtractor) u ubar (MEuubar2Y12ttbar u,ubar->t,tbar) 
                                               0            0                0
(PPExtractor) u ubar (MEuubar2Y12bbbar u,ubar->b,bbar) 
                                            1190         1190      1.62(5)e+00
(PPExtractor) u ubar (MEuubar2Y12ssbar u,ubar->s,sbar) 
                                            1163         1163      1.58(5)e+00
(PPExtractor) u ubar (MEuubar2Y12ccbar u,ubar->c,cbar) 
                                            1188         1188      1.62(5)e+00
(PPExtractor) u ubar (MEuubar2Y12ddbar u,ubar->d,dbar) 
                                            1172         1172      1.59(5)e+00
(PPExtractor) u ubar (MEuubar2Y12uubar u,ubar->u,ubar) 
                                            1176         1176      1.60(5)e+00
(PPExtractor) u dbar (MEudbar2Y1W+ u,dbar->Y1,W+) 
                                              10           10        14(4)e-03
(PPExtractor) u g (MEug2Y1u u,g->Y1,u) 
                                             856          856      1.16(4)e+00
(PPExtractor) s cbar (MEscbar2Y1W- s,cbar->Y1,W-) 
                                               0            0                0
(PPExtractor) s sbar (MEssbar2Y1g s,sbar->Y1,g) 
                                              72           72        98(1)e-03
(PPExtractor) s sbar (MEssbar2Y1gamma s,sbar->Y1,gamma) 
                                               0            0                0
(PPExtractor) s sbar (MEssbar2Y1Z0 s,sbar->Y1,Z0) 
                                               1            1         1(1)e-03
(PPExtractor) s sbar (MEssbar2Y1Y1 s,sbar->Y1,Y1) 
                                               3            3         4(2)e-03
(PPExtractor) s sbar (MEssbar2Y12XmXm s,sbar->Xm,Xm) 
                                               1            1         1(1)e-03
(PPExtractor) s sbar (MEssbar2Y12ttbar s,sbar->t,tbar) 
                                               0            0                0
(PPExtractor) s sbar (MEssbar2Y12bbbar s,sbar->b,bbar) 
                                             202          202      0.27(2)e+00
(PPExtractor) s sbar (MEssbar2Y12ssbar s,sbar->s,sbar) 
                                             204          204      0.28(2)e+00
(PPExtractor) s sbar (MEssbar2Y12ccbar s,sbar->c,cbar) 
                                             216          216      0.29(2)e+00
(PPExtractor) s sbar (MEssbar2Y12ddbar s,sbar->d,dbar) 
                                             199          199      0.27(2)e+00
(PPExtractor) s sbar (MEssbar2Y12uubar s,sbar->u,ubar) 
                                             194          194      0.26(2)e+00
(PPExtractor) s g (MEsg2Y1s s,g->Y1,s) 
                                             121          121      0.16(1)e+00
(PPExtractor) c cbar (MEccbar2Y1g c,cbar->Y1,g) 
                                              25           25        34(7)e-03
(PPExtractor) c cbar (MEccbar2Y1gamma c,cbar->Y1,gamma) 
                                               0            0                0
(PPExtractor) c cbar (MEccbar2Y1Z0 c,cbar->Y1,Z0) 
                                               0            0                0
(PPExtractor) c cbar (MEccbar2Y1Y1 c,cbar->Y1,Y1) 
                                               0            0                0
(PPExtractor) c cbar (MEccbar2Y12XmXm c,cbar->Xm,Xm) 
                                               0            0                0
(PPExtractor) c cbar (MEccbar2Y12ttbar c,cbar->t,tbar) 
                                               0            0                0
(PPExtractor) c cbar (MEccbar2Y12bbbar c,cbar->b,bbar) 
                                              93           93      0.13(1)e+00
(PPExtractor) c cbar (MEccbar2Y12ssbar c,cbar->s,sbar) 
                                             123          123      0.17(2)e+00
(PPExtractor) c cbar (MEccbar2Y12ccbar c,cbar->c,cbar) 
                                             112          112      0.15(1)e+00
(PPExtractor) c cbar (MEccbar2Y12ddbar c,cbar->d,dbar) 
                                             115          115      0.16(1)e+00
(PPExtractor) c cbar (MEccbar2Y12uubar c,cbar->u,ubar) 
                                              96           96      0.13(1)e+00
(PPExtractor) c sbar (MEcsbar2Y1W+ c,sbar->Y1,W+) 
                                               1            1         1(1)e-03
(PPExtractor) c g (MEcg2Y1c c,g->Y1,c) 
                                              75           75      0.10(1)e+00
(PPExtractor) b bbar (MEbbbar2Y1g b,bbar->Y1,g) 
                                               8            8        11(4)e-03
(PPExtractor) b bbar (MEbbbar2Y1gamma b,bbar->Y1,gamma) 
                                               0            0                0
(PPExtractor) b bbar (MEbbbar2Y1Z0 b,bbar->Y1,Z0) 
                                               0            0                0
(PPExtractor) b bbar (MEbbbar2Y1H b,bbar->Y1,H) 
                                               0            0                0
(PPExtractor) b bbar (MEbbbar2Y1Y1 b,bbar->Y1,Y1) 
                                               0            0                0
(PPExtractor) b bbar (MEbbbar2Y12XmXm b,bbar->Xm,Xm) 
                                               0            0                0
(PPExtractor) b bbar (MEbbbar2Y12ttbar b,bbar->t,tbar) 
                                               0            0                0
(PPExtractor) b bbar (MEbbbar2Y12bbbar b,bbar->b,bbar) 
                                              51           51       70(10)e-03
(PPExtractor) b bbar (MEbbbar2Y12ssbar b,bbar->s,sbar) 
                                              49           49       70(10)e-03
(PPExtractor) b bbar (MEbbbar2Y12ccbar b,bbar->c,cbar) 
                                              43           43        58(9)e-03
(PPExtractor) b bbar (MEbbbar2Y12ddbar b,bbar->d,dbar) 
                                              32           32        44(8)e-03
(PPExtractor) b bbar (MEbbbar2Y12uubar b,bbar->u,ubar) 
                                              47           47        64(9)e-03
(PPExtractor) b g (MEbg2Y1b b,g->Y1,b) 
                                              52           52       70(10)e-03
(PPExtractor) g bbar (MEbbarg2Y1bbar bbar,g->Y1,bbar) 
                                              44           44        60(9)e-03
(PPExtractor) g cbar (MEcbarg2Y1cbar cbar,g->Y1,cbar) 
                                              95           95      0.13(1)e+00
(PPExtractor) g sbar (MEsbarg2Y1sbar sbar,g->Y1,sbar) 
                                              97           97      0.13(1)e+00
(PPExtractor) g ubar (MEubarg2Y1ubar ubar,g->Y1,ubar) 
                                             189          189      0.26(2)e+00
(PPExtractor) g dbar (MEdbarg2Y1dbar dbar,g->Y1,dbar) 
                                             206          206      0.28(2)e+00
(PPExtractor) g d (MEdg2Y1d d,g->Y1,d) 
                                             491          491      0.67(3)e+00
(PPExtractor) g u (MEug2Y1u u,g->Y1,u) 
                                             866          866      1.18(4)e+00
(PPExtractor) g s (MEsg2Y1s s,g->Y1,s) 
                                             101          101      0.14(1)e+00
(PPExtractor) g c (MEcg2Y1c c,g->Y1,c) 
                                              71           71        97(1)e-03
(PPExtractor) g b (MEbg2Y1b b,g->Y1,b) 
                                              42           42        57(9)e-03
==============================================================================
